…
            ifelse(weekday_is_thursday==1, "Thursday", 
              ifelse(weekday_is_friday==1, "Friday", 
                ifelse(weekday_is_saturday==1, "Saturday", 
                  ifelse(weekday_is_sunday==1, "Sunday", NA)
                  )
                )
              )
            )
          )
      )
    )
target_data
```

    ## # A tibble: 6,258 x 63
    ##    url     timedelta n_tokens_title n_tokens_content n_unique_tokens n_non_stop_words n_non_stop_uniq~ num_hrefs num_self_hrefs num_imgs num_videos average_token_l~
    ##    <chr>       <dbl>          <dbl>            <dbl>           <dbl>            <dbl>            <dbl>     <dbl>          <dbl>    <dbl>      <dbl>            <dbl>
    ##  1 http:/~       731              9              255           0.605             1.00            0.792         3              1        1          0             4.91
    ##  2 http:/~       731              9              211           0.575             1.00            0.664         3              1        1          0             4.39
    ##  3 http:/~       731              8              397           0.625             1.00            0.806        11              0        1          0             5.45
    ##  4 http:/~       731             13              244           0.560             1.00            0.680         3              2        1          0             4.42
    ##  5 http:/~       731             11              723           0.491             1.00            0.642        18              1        1          0             5.23
    ##  6 http:/~       731              8              708           0.482             1.00            0.688         8              3        1          1             4.62
    ##  7 http:/~       731             10              142           0.655             1.00            0.792         2              1        1          0             4.27
    ##  8 http:/~       731             12              444           0.601             1.00            0.755         9              8       23          0             4.81
    ##  9 http:/~       731              6              109           0.667             1.00            0.737         3              2        1          0             4.73
    ## 10 http:/~       730             13              306           0.535             1.00            0.705         3              2        1          0             4.58
    ## # ... with 6,248 more rows, and 51 more variables: num_keywords <dbl>, data_channel_is_lifestyle <dbl>, data_channel_is_entertainment <dbl>,
    ## #   data_channel_is_bus <dbl>, data_channel_is_socmed <dbl>, data_channel_is_tech <dbl>, data_channel_is_world <dbl>, kw_min_min <dbl>, kw_max_min <dbl>,
    ## #   kw_avg_min <dbl>, kw_min_max <dbl>, kw_max_max <dbl>, kw_avg_max <dbl>, kw_min_avg <dbl>, kw_max_avg <dbl>, kw_avg_avg <dbl>, self_reference_min_shares <dbl>,
    ## #   self_reference_max_shares <dbl>, self_reference_avg_sharess <dbl>, weekday_is_monday <dbl>, weekday_is_tuesday <dbl>, weekday_is_wednesday <dbl>,
    ## #   weekday_is_thursday <dbl>, weekday_is_friday <dbl>, weekday_is_saturday <dbl>, weekday_is_sunday <dbl>, is_weekend <dbl>, LDA_00 <dbl>, LDA_01 <dbl>,
    ## #   LDA_02 <dbl>, LDA_03 <dbl>, LDA_04 <dbl>, global_subjectivity <dbl>, global_sentiment_polarity <dbl>, global_rate_positive_words <dbl>,
    ## #   global_rate_negative_words <dbl>, rate_positive_words <dbl>, rate_negative_words <dbl>, avg_positive_polarity <dbl>, min_positive_polarity <dbl>, ...
…
