…
            ifelse(weekday_is_thursday==1, "Thursday", 
              ifelse(weekday_is_friday==1, "Friday", 
                ifelse(weekday_is_saturday==1, "Saturday", 
                  ifelse(weekday_is_sunday==1, "Sunday", NA)
                  )
                )
              )
            )
          )
      )
    )
target_data
```

    ## # A tibble: 7,057 x 63
    ##    url        timedelta n_tokens_title n_tokens_content n_unique_tokens n_non_stop_words n_non_stop_uniq~ num_hrefs num_self_hrefs
    ##    <chr>          <dbl>          <dbl>            <dbl>           <dbl>            <dbl>            <dbl>     <dbl>          <dbl>
    ##  1 http://ma~       731             12              219           0.664             1.00            0.815         4              2
    ##  2 http://ma~       731              9              531           0.504             1.00            0.666         9              0
    ##  3 http://ma~       731             14              194           0.765             1.00            0.840         4              4
    ##  4 http://ma~       731             12              161           0.669             1.00            0.752         5              4
    ##  5 http://ma~       731             11              454           0.566             1.00            0.755         5              3
    ##  6 http://ma~       731             12              177           0.741             1.00            0.823         4              3
    ##  7 http://ma~       731              5              356           0.618             1.00            0.766         3              3
    ##  8 http://ma~       730             11              281           0.611             1.00            0.766         5              4
    ##  9 http://ma~       730             10              909           0.450             1.00            0.670         3              2
    ## 10 http://ma~       729             10              413           0.606             1.00            0.729         6              1
    ## # ... with 7,047 more rows, and 54 more variables: num_imgs <dbl>, num_videos <dbl>, average_token_length <dbl>,
    ## #   num_keywords <dbl>, data_channel_is_lifestyle <dbl>, data_channel_is_entertainment <dbl>, data_channel_is_bus <dbl>,
    ## #   data_channel_is_socmed <dbl>, data_channel_is_tech <dbl>, data_channel_is_world <dbl>, kw_min_min <dbl>, kw_max_min <dbl>,
    ## #   kw_avg_min <dbl>, kw_min_max <dbl>, kw_max_max <dbl>, kw_avg_max <dbl>, kw_min_avg <dbl>, kw_max_avg <dbl>, kw_avg_avg <dbl>,
    ## #   self_reference_min_shares <dbl>, self_reference_max_shares <dbl>, self_reference_avg_sharess <dbl>, weekday_is_monday <dbl>,
    ## #   weekday_is_tuesday <dbl>, weekday_is_wednesday <dbl>, weekday_is_thursday <dbl>, weekday_is_friday <dbl>,
    ## #   weekday_is_saturday <dbl>, weekday_is_sunday <dbl>, is_weekend <dbl>, LDA_00 <dbl>, LDA_01 <dbl>, LDA_02 <dbl>, ...
…
