…
``` r
# select data for one data channel of interest with predictors for analyzing
library(dplyr)
target_data <- type_data %>% filter(type == params$filter_type) 

# create predictor weekday 
data <- target_data %>% mutate(weekday=ifelse(weekday_is_monday==1, "Monday", ifelse(weekday_is_tuesday==1, "Tuesday", ifelse(weekday_is_wednesday==1, "Wednesday", ifelse(weekday_is_thursday==1, "Thursday", ifelse(weekday_is_friday==1, "Friday", ifelse(weekday_is_saturday==1, "Saturday", ifelse(weekday_is_sunday==1, "Sunday", NA))))))))

data <- data %>% select(shares, timedelta, num_self_hrefs, num_imgs, num_videos,  num_keywords, weekday, is_weekend, LDA_00, LDA_01, LDA_02, LDA_03, LDA_04, global_rate_negative_words, global_rate_positive_words)

data
```

    ## # A tibble: 7,057 x 15
    ##    shares timedelta num_self_hrefs
    ##     <dbl>     <dbl>          <dbl>
    ##  1    593       731              2
    ##  2   1200       731              0
    ##  3   2100       731              4
    ##  4   1200       731              4
    ##  5   4600       731              3
    ##  6   1200       731              3
    ##  7    631       731              3
    ##  8   1300       730              4
    ##  9   1700       730              2
    ## 10    455       729              1
    ## # ... with 7,047 more rows, and 12 more
    ## #   variables: num_imgs <dbl>,
    ## #   num_videos <dbl>,
    ## #   num_keywords <dbl>, weekday <chr>,
    ## #   is_weekend <dbl>, LDA_00 <dbl>,
    ## #   LDA_01 <dbl>, LDA_02 <dbl>,
    ## #   LDA_03 <dbl>, LDA_04 <dbl>, ...

-   Split data into train and test sets

``` r
library(caret)
set.seed(100)
train_index <- createDataPartition(data$weekday, p=0.7, list=FALSE)
train <- data[train_index,]
test <- data[-train_index, ]
train
```

    ## # A tibble: 4,943 x 15
    ##    shares timedelta num_self_hrefs
    ##     <dbl>     <dbl>          <dbl>
    ##  1    593       731              2
    ##  2   2100       731              4
    ##  3   1200       731              4
    ##  4   4600       731              3
    ##  5   1200       731              3
    ##  6    631       731              3
    ##  7   1300       730              4
    ##  8   1700       730              2
    ##  9    455       729              1
    ## 10   1900       729              2
    ## # ... with 4,933 more rows, and 12 more
    ## #   variables: num_imgs <dbl>,
    ## #   num_videos <dbl>,
    ## #   num_keywords <dbl>, weekday <chr>,
    ## #   is_weekend <dbl>, LDA_00 <dbl>,
    ## #   LDA_01 <dbl>, LDA_02 <dbl>,
    ## #   LDA_03 <dbl>, LDA_04 <dbl>, ...
…
