…
            ifelse(weekday_is_thursday==1, "Thursday", 
              ifelse(weekday_is_friday==1, "Friday", 
                ifelse(weekday_is_saturday==1, "Saturday", 
                  ifelse(weekday_is_sunday==1, "Sunday", NA)
                  )
                )
              )
            )
          )
      )
    )
target_data
```

    ## # A tibble: 2,323 x 63
    ##    url               timedelta n_tokens_title n_tokens_content n_unique_tokens n_non_stop_words n_non_stop_uniq~ num_hrefs
    ##    <chr>                 <dbl>          <dbl>            <dbl>           <dbl>            <dbl>            <dbl>     <dbl>
    ##  1 http://mashable.~       731              8              257           0.568             1.00            0.671         9
    ##  2 http://mashable.~       731              8              218           0.663             1.00            0.688        14
    ##  3 http://mashable.~       731              9             1226           0.410             1.00            0.617        10
    ##  4 http://mashable.~       731             10             1121           0.451             1.00            0.629        15
    ##  5 http://mashable.~       729              9              168           0.778             1.00            0.865         6
    ##  6 http://mashable.~       729              9              100           0.760             1.00            0.803         3
    ##  7 http://mashable.~       729             10             1596           0.420             1.00            0.632        19
    ##  8 http://mashable.~       728              7              518           0.486             1.00            0.654        11
    ##  9 http://mashable.~       727              8              358           0.503             1.00            0.687         4
    ## 10 http://mashable.~       727              6              358           0.622             1.00            0.777        24
    ## # ... with 2,313 more rows, and 55 more variables: num_self_hrefs <dbl>, num_imgs <dbl>, num_videos <dbl>,
    ## #   average_token_length <dbl>, num_keywords <dbl>, data_channel_is_lifestyle <dbl>, data_channel_is_entertainment <dbl>,
    ## #   data_channel_is_bus <dbl>, data_channel_is_socmed <dbl>, data_channel_is_tech <dbl>, data_channel_is_world <dbl>,
    ## #   kw_min_min <dbl>, kw_max_min <dbl>, kw_avg_min <dbl>, kw_min_max <dbl>, kw_max_max <dbl>, kw_avg_max <dbl>,
    ## #   kw_min_avg <dbl>, kw_max_avg <dbl>, kw_avg_avg <dbl>, self_reference_min_shares <dbl>,
    ## #   self_reference_max_shares <dbl>, self_reference_avg_sharess <dbl>, weekday_is_monday <dbl>, weekday_is_tuesday <dbl>,
    ## #   weekday_is_wednesday <dbl>, weekday_is_thursday <dbl>, weekday_is_friday <dbl>, weekday_is_saturday <dbl>, ...
…
