…
            ifelse(weekday_is_thursday==1, "Thursday", 
              ifelse(weekday_is_friday==1, "Friday", 
                ifelse(weekday_is_saturday==1, "Saturday", 
                  ifelse(weekday_is_sunday==1, "Sunday", NA)
                  )
                )
              )
            )
          )
      )
    )
target_data
```

    ## # A tibble: 7,346 x 63
    ##    url     timedelta n_tokens_title n_tokens_content n_unique_tokens n_non_stop_words n_non_stop_uniq~ num_hrefs num_self_hrefs num_imgs num_videos average_token_l~
    ##    <chr>       <dbl>          <dbl>            <dbl>           <dbl>            <dbl>            <dbl>     <dbl>          <dbl>    <dbl>      <dbl>            <dbl>
    ##  1 http:/~       731             13             1072           0.416             1.00            0.541        19             19       20          0             4.68
    ##  2 http:/~       731             10              370           0.560             1.00            0.698         2              2        0          0             4.36
    ##  3 http:/~       731             12              989           0.434             1.00            0.572        20             20       20          0             4.62
    ##  4 http:/~       731             11               97           0.670             1.00            0.837         2              0        0          0             4.86
    ##  5 http:/~       731              8             1207           0.411             1.00            0.549        24             24       42          0             4.72
    ##  6 http:/~       731             13             1248           0.391             1.00            0.523        21             19       20          0             4.69
    ##  7 http:/~       731             11             1154           0.427             1.00            0.573        20             20       20          0             4.63
    ##  8 http:/~       731              8              266           0.573             1.00            0.721         5              2        1          0             4.26
    ##  9 http:/~       731              8              331           0.563             1.00            0.724         5              3        1          0             4.78
    ## 10 http:/~       731             12             1225           0.385             1.00            0.509        22             22       28          0             4.64
    ## # ... with 7,336 more rows, and 51 more variables: num_keywords <dbl>, data_channel_is_lifestyle <dbl>, data_channel_is_entertainment <dbl>,
    ## #   data_channel_is_bus <dbl>, data_channel_is_socmed <dbl>, data_channel_is_tech <dbl>, data_channel_is_world <dbl>, kw_min_min <dbl>, kw_max_min <dbl>,
    ## #   kw_avg_min <dbl>, kw_min_max <dbl>, kw_max_max <dbl>, kw_avg_max <dbl>, kw_min_avg <dbl>, kw_max_avg <dbl>, kw_avg_avg <dbl>, self_reference_min_shares <dbl>,
    ## #   self_reference_max_shares <dbl>, self_reference_avg_sharess <dbl>, weekday_is_monday <dbl>, weekday_is_tuesday <dbl>, weekday_is_wednesday <dbl>,
    ## #   weekday_is_thursday <dbl>, weekday_is_friday <dbl>, weekday_is_saturday <dbl>, weekday_is_sunday <dbl>, is_weekend <dbl>, LDA_00 <dbl>, LDA_01 <dbl>,
    ## #   LDA_02 <dbl>, LDA_03 <dbl>, LDA_04 <dbl>, global_subjectivity <dbl>, global_sentiment_polarity <dbl>, global_rate_positive_words <dbl>,
    ## #   global_rate_negative_words <dbl>, rate_positive_words <dbl>, rate_negative_words <dbl>, avg_positive_polarity <dbl>, min_positive_polarity <dbl>, ...
…
