…
            ifelse(weekday_is_thursday==1, "Thursday", 
              ifelse(weekday_is_friday==1, "Friday", 
                ifelse(weekday_is_saturday==1, "Saturday", 
                  ifelse(weekday_is_sunday==1, "Sunday", NA)
                  )
                )
              )
            )
          )
      )
    )
target_data
```

    ## # A tibble: 8,427 x 63
    ##    url     timedelta n_tokens_title n_tokens_content n_unique_tokens n_non_stop_words n_non_stop_uniq~ num_hrefs num_self_hrefs num_imgs num_videos average_token_l~
    ##    <chr>       <dbl>          <dbl>            <dbl>           <dbl>            <dbl>            <dbl>     <dbl>          <dbl>    <dbl>      <dbl>            <dbl>
    ##  1 http:/~       731             10              231           0.636             1.00            0.797         4              1        1          1             5.09
    ##  2 http:/~       731              9             1248           0.490             1.00            0.732        11              0        1          0             4.62
    ##  3 http:/~       731             12              682           0.460             1.00            0.635        10              0        1          0             4.62
    ##  4 http:/~       731              9              391           0.510             1.00            0.650         9              2        1          1             5.30
    ##  5 http:/~       731             11              125           0.675             1.00            0.797         1              1        1          0             4.82
    ##  6 http:/~       731             11              799           0.504             1.00            0.738         8              6        1          0             4.70
    ##  7 http:/~       731             11              317           0.611             1.00            0.729         7              6        1          0             5.24
    ##  8 http:/~       731             11              399           0.598             1.00            0.806         8              0        1          0             4.58
    ##  9 http:/~       731              9              443           0.467             1.00            0.589         3              1        1          0             5.01
    ## 10 http:/~       730             12              288           0.589             1.00            0.726         5              2        0          0             4.38
    ## # ... with 8,417 more rows, and 51 more variables: num_keywords <dbl>, data_channel_is_lifestyle <dbl>, data_channel_is_entertainment <dbl>,
    ## #   data_channel_is_bus <dbl>, data_channel_is_socmed <dbl>, data_channel_is_tech <dbl>, data_channel_is_world <dbl>, kw_min_min <dbl>, kw_max_min <dbl>,
    ## #   kw_avg_min <dbl>, kw_min_max <dbl>, kw_max_max <dbl>, kw_avg_max <dbl>, kw_min_avg <dbl>, kw_max_avg <dbl>, kw_avg_avg <dbl>, self_reference_min_shares <dbl>,
    ## #   self_reference_max_shares <dbl>, self_reference_avg_sharess <dbl>, weekday_is_monday <dbl>, weekday_is_tuesday <dbl>, weekday_is_wednesday <dbl>,
    ## #   weekday_is_thursday <dbl>, weekday_is_friday <dbl>, weekday_is_saturday <dbl>, weekday_is_sunday <dbl>, is_weekend <dbl>, LDA_00 <dbl>, LDA_01 <dbl>,
    ## #   LDA_02 <dbl>, LDA_03 <dbl>, LDA_04 <dbl>, global_subjectivity <dbl>, global_sentiment_polarity <dbl>, global_rate_positive_words <dbl>,
    ## #   global_rate_negative_words <dbl>, rate_positive_words <dbl>, rate_negative_words <dbl>, avg_positive_polarity <dbl>, min_positive_polarity <dbl>, ...
…
